{
  "name": "MyUser",
  "base": "User",
  "idInjection": true,
  "options": {
    "validateUpsert": true
  },
  "properties": {},
  "validations": [],
  "relations": {
    "accessTokens": {
      "type": "hasMany",
      "model": "MyAccessToken",
      "polymorphic": {
        "foreignKey": "userId",
        "discriminator": "principalType"
      },
      "options": {
        "disableInclude": true
      }
    },
    "creditionals": {
      "type": "hasMany",
      "model": "Creditionals",
      "foreignKey": ""
    },
    "tarifs": {
      "type": "hasOne",
      "model": "Tarif",
      "foreignKey": ""
    },
    "copyTasks": {
      "type": "hasMany",
      "model": "CopyTask",
      "foreignKey": ""
    },
    "notifications": {
      "type": "hasMany",
      "model": "Notification",
      "foreignKey": ""
    },
    "wallets": {
      "type": "hasMany",
      "model": "Wallet",
      "foreignKey": ""
    },
    "userTarifs": {
      "type": "hasOne",
      "model": "UserTarif",
      "foreignKey": ""
    }
  },
  "acls": [
    {
      "accessType": "*",
      "principalType": "ROLE",
      "principalId": "$everyone",
      "permission": "DENY"
    },
    {
      "accessType": "EXECUTE",
      "principalType": "ROLE",
      "principalId": "$unauthenticated",
      "permission": "ALLOW",
      "property": "resend"
    },
    {
      "accessType": "EXECUTE",
      "principalType": "ROLE",
      "principalId": "$unauthenticated",
      "permission": "ALLOW",
      "property": "resetMyPassword"
    },
    {
      "accessType": "EXECUTE",
      "principalType": "ROLE",
      "principalId": "$unauthenticated",
      "permission": "ALLOW",
      "property": "resetPasswordSend"
    },
    {
      "accessType": "READ",
      "principalType": "ROLE",
      "principalId": "$authenticated",
      "permission": "ALLOW",
      "property": "getMyRole"
    },
    {
      "accessType": "READ",
      "principalType": "ROLE",
      "principalId": "$authenticated",
      "permission": "ALLOW",
      "property": "getOrderInfo"
    },
    {
      "accessType": "READ",
      "principalType": "ROLE",
      "principalId": "$authenticated",
      "permission": "ALLOW",
      "property": "checkPay"
    }
  ],
  "methods": {}
}
