{
  "_meta": {
    "sources": [
      "loopback/common/models",
      "loopback/server/models",
      "../common/models",
      "./models"
    ],
    "mixins": [
      "loopback/common/mixins",
      "loopback/server/mixins",
      "../common/mixins",
      "./mixins"
    ]
  },
  "User": {
    "dataSource": "mongo",
    "public": false
  },
  "AccessToken": {
    "dataSource": "mongo",
    "public": false
  },
  "Email": {
    "dataSource": "emailDs"
  },
  "ACL": {
    "dataSource": "mongo",
    "public": false
  },
  "RoleMapping": {
    "dataSource": "mongo",
    "public": false,
    "options": {
      "strictObjectIDCoercion": true
    }
  },
  "Role": {
    "dataSource": "mongo",
    "public": false
  },
  "MyUser": {
    "dataSource": "mongo",
    "public": true,
    "options": {
      "emailVerificationRequired": true
    }
  },
  "MyAccessToken": {
    "dataSource": "mongo",
    "public": true
  },
  "Storage": {
    "dataSource": "mongo",
    "public": false
  },
  "Creditionals": {
    "dataSource": "mongo",
    "public": true
  },
  "Tarif": {
    "dataSource": "mongo",
    "public": true
  },
  "LimitCount": {
    "dataSource": "mongo",
    "public": true
  },
  "CopyTask": {
    "dataSource": "mongo",
    "public": true
  },
  "Contacts": {
    "dataSource": "mongo",
    "public": true
  },
  "TelegramUser": {
    "dataSource": "mongo",
    "public": true
  },
  "telegram_user_contacts": {
    "dataSource": "mongo",
    "public": false
  },
  "Sender": {
    "dataSource": null,
    "public": false
  },
  "Helper": {
    "dataSource": null,
    "public": false
  },
  "TelegramApiAdapter": {
    "dataSource": null,
    "public": false
  },
  "Notification": {
    "dataSource": "mongo",
    "public": true
  },
  "LastDialog": {
    "dataSource": "mongo",
    "public": true
  },
  "Wallet": {
    "dataSource": "mongo",
    "public": true
  },
  "Order": {
    "dataSource": "mongo",
    "public": true
  },
  "TestPeriod": {
    "dataSource": "mongo",
    "public": true
  },
  "UserTarif": {
    "dataSource": "mongo",
    "public": true
  }
}
