{
  "name": "Wallet",
  "base": "PersistedModel",
  "idInjection": true,
  "options": {
    "validateUpsert": true
  },
  "properties": {
    "tokenId": {
      "type": "string",
      "required": true
    },
    "lastBuyTransaction": {
      "type": "number"
    },
    "tarifId": {
      "type": "string",
      "required": true
    },
    "myUserId": {
      "type": "string",
      "required": true
    }
  },
  "validations": [],
  "relations": {
    "myUser": {
      "type": "belongsTo",
      "model": "MyUser",
      "foreignKey": ""
    },
    "tarif": {
      "type": "belongsTo",
      "model": "Tarif",
      "foreignKey": ""
    },
    "orders": {
      "type": "hasMany",
      "model": "Order",
      "foreignKey": ""
    }
  },
  "acls": [],
  "methods": {}
}
